1 10 20
100 200 125
201 210 89
900 1000 174
914096 316078 525
452478 938443 525
450576 524199 470
10390 78172 351
820326 262472 509
476162 961518 525
851947 758787 525
419909 402386 449
724664 284644 509
647709 735250 504
299558 227439 443
677740 476018 509
839708 96773 525
704806 889302 525
169586 520663 470
328590 964262 525
193811 778204 509
619005 606322 447
865462 755293 525
349493 654232 509
198431 977662 525
386725 465817 449
233222 824545 509
497745 27979 449
732341 378783 509
727132 989447 525
878836 410534 525
210760 149080 383
346386 733255 509
891961 365262 525
294549 145170 443
177029 285628 443
361299 440160 449
78636 660503 509
883640 385759 525
360231 332659 441
616498 214700 470
686209 86965 509
728511 976665 525
715467 362616 509
854673 155561 525
939337 829294 525
766285 454294 509
912401 488356 525
393144 580468 470
536525 748711 509
151746 160724 383
933253 538585 525
199636 305173 443
326031 210865 443
604033 581848 434
6528 818660 509
656850 677659 442
601945 492446 470
484797 328278 449
283665 975692 525
584839 795670 509
552033 37368 470
432889 722879 509
388323 610533 470
894856 84257 525
77442 186417 383
689010 977982 525
550844 18750 470
204581 314986 443
920059 26727 525
995540 61343 525
278357 156445 443
491130 343906 449
237945 898207 525
823128 574239 509
299950 281841 389
445275 9238 449
484815 3952 449
632288 385527 509
651129 469788 509
390942 411623 449
568649 768711 509
912133 613 525
985337 658142 525
494432 12009 449
873838 357976 525
386742 335299 441
20688 873997 525
948054 546118 525
464683 506949 426
348227 72487 443
984624 695199 525
94123 967933 525
750971 694760 504
693341 984922 525
763938 695103 504
655229 922043 525
805286 847774 525
459547 496875 444
262216 771281 509
134922 309034 443
590498 860427 525
224823 931387 525
101051 528657 470
586117 154212 470
71709 963725 525
745914 848541 525
297862 347607 441
82218 56457 351
679542 923364 525
370438 300324 441
968187 918112 507
306531 688950 509
920489 82261 525
604336 62020 470
412324 320009 449
486901 334877 449
385502 71013 443
899029 752317 525
394980 330020 441
406134 544171 470
151017 750148 509
538062 136160 470
129608 153420 375
3135 4 217
455921 389296 449
310470 522389 470
631 733770 509
641024 229108 509
663823 679877 442
926507 57612 525
466177 214451 449
593978 837030 509
530321 989357 525
832239 395892 509
180713 889417 525
227715 77490 386
523658 410267 470
336037 420567 449
479680 784265 509
178598 567365 470
434305 648149 509
366623 328942 441
283338 42447 443
248959 457286 449
956672 745346 525
26309 191417 383
292055 166189 443
945397 832777 525
16164 748976 509
746245 440905 509
553488 986908 525
574364 100473 470
626230 483876 470
416399 917409 525
202677 7507 383
438498 870546 525
616612 71310 470
549112 570194 421
112511 195369 383
71278 573494 470
624628 611962 447
692003 734336 504
768818 254281 509
938722 976109 507
869790 926941 476
430726 682807 509
672406 972116 525
195834 866605 525
983822 597959 525
934271 434925 525
112184 325560 443
774894 739684 468
696898 967313 525
272483 697439 509
301155 941555 525
762680 933836 525
720015 542967 509
967103 71148 525
642705 133420 509
378562 876842 525
774830 302936 509
738936 499376 509
782608 819985 468
248534 536779 470
354679 661208 509
96298 6931 351
468208 414525 444
905484 708299 525
842343 356490 525
53617 294959 443
113876 852271 525
758896 70719 509
915872 544857 525
765737 560558 509
208938 318126 443
171804 846917 525
606017 425902 470
392633 242915 441
468526 971488 525
729425 4950 509
366679 829618 509
816833 862862 525
258639 912716 525
1 999999 525
500000 500001 152
100 100 26
